<?xml version="1.0"?>

<!-- URL, Spawning simple geometry in Gazebo: http://wiki.ros.org/simulator_gazebo/Tutorials/SpawningObjectInSimulation -->

<robot name="block_axes"> <!-- Every URDF model you add is a "robot" -->

    <!-- == Colors ==  -->
    
    <material name="red">
        <color rgba="1.0 0 0 1"/>
    </material>
    
    <material name="green">
        <color rgba="0 1.0 0 1"/>
    </material>

    <material name="blue">
        <color rgba="0 0 1.0 1"/>
    </material>
    
    <material name="white">
        <color rgba="1 1 1 1"/>
    </material>

    <!-- __ End Color __  -->
    
    <link name="x_axis">

		<!-- URL, Inertia element must be present: http://gazebosim.org/tutorials?tut=ros_urdf#%3Cinertial%3EElement -->
		<inertial>
			<origin xyz="2 0 0" />
			<mass value="1.0" />
			<inertia  ixx="1.0" ixy="0.0"  ixz="0.0"  iyy="100.0"  iyz="0.0"  izz="1.0" />
		</inertial>

		<visual>
			<!--origin xyz="2 0 1"/-->  <!-- Is this absolute or relative? -->
			<origin xyz="0.05 0 0"/>
			<geometry>
				<box size="0.1 0.01 0.01" />
			</geometry>
		</visual>

	</link>
    
	<link name="x_axis">

		<!-- URL, Inertia element must be present: http://gazebosim.org/tutorials?tut=ros_urdf#%3Cinertial%3EElement -->
		<inertial>
			<origin xyz="2 0 0" />
			<mass value="1.0" />
			<inertia  ixx="1.0" ixy="0.0"  ixz="0.0"  iyy="100.0"  iyz="0.0"  izz="1.0" />
		</inertial>

		<visual>
			<!--origin xyz="2 0 1"/-->  <!-- Is this absolute or relative? -->
			<origin xyz="0.05 0 0"/>
			<geometry>
				<box size="0.1 0.01 0.01" />
			</geometry>
		</visual>

	</link>

	<joint name="X-Y" type="continuous">
		<parent link="x_axis"/>
		<child  link="y_axis"/>
	</joint>

	<link name="y_axis">

		<!-- URL, Inertia element must be present: http://gazebosim.org/tutorials?tut=ros_urdf#%3Cinertial%3EElement -->
		<inertial>
			<origin xyz="2 0 0" />
			<mass value="1.0" />
			<inertia  ixx="1.0" ixy="0.0"  ixz="0.0"  iyy="100.0"  iyz="0.0"  izz="1.0" />
		</inertial>

		<visual>
			<!--origin xyz="2 0 1"/-->  <!-- Is this absolute or relative? -->
			<origin xyz="0 0.05 0"/>
			<geometry>
				<box size="0.01 0.1 0.01" />
			</geometry>
		</visual>

	</link>

	<joint name="X-Z" type="continuous">
		<parent link="x_axis"/>
		<child  link="z_axis"/>
	</joint>

	<link name="z_axis">

		<!-- URL, Inertia element must be present: http://gazebosim.org/tutorials?tut=ros_urdf#%3Cinertial%3EElement -->
		<inertial>
			<origin xyz="2 0 0" />
			<mass value="1.0" />
			<inertia  ixx="1.0" ixy="0.0"  ixz="0.0"  iyy="100.0"  iyz="0.0"  izz="1.0" />
		</inertial>

		<visual>
			<!--origin xyz="2 0 1"/-->  <!-- Is this absolute or relative? -->
			<origin xyz="0 0 0.05"/>
			<geometry>
				<box size="0.01 0.01 0.1" />
			</geometry>
		</visual>

	</link>

	<gazebo reference="x_axis">  <material>Gazebo/Red</material>   </gazebo>
	<gazebo reference="y_axis">  <material>Gazebo/Green</material>  </gazebo>
	<gazebo reference="z_axis">  <material>Gazebo/Blue</material>   </gazebo>

	<gazebo> <!-- Gazebo params that affect the entire model do not get a "reference" field -->
		<static>true</static>
		<!-- static>false</static --> <!-- If static is not set to true, the axes fall under the influence of gravity -->
    	<turnGravityOff>true</turnGravityOff>
	</gazebo>

</robot>
