<?xml version="1.0"?>

<!-- URL, Spawning simple geometry in Gazebo: http://wiki.ros.org/simulator_gazebo/Tutorials/SpawningObjectInSimulation -->

<robot name="block_Y_mid"> <!-- Every URDF model you add is a "robot" -->

	<link name="y_axis">

		<!-- URL, Inertia element must be present: http://gazebosim.org/tutorials?tut=ros_urdf#%3Cinertial%3EElement -->
		<inertial>
			<origin xyz="2 0 0" />
			<mass value="1.0" />
			<inertia  ixx="1.0" ixy="0.0"  ixz="0.0"  iyy="1.0"  iyz="0.0"  izz="1.0" />
		</inertial>

		<visual>
			<!-- Origin refers to the origin of the geometry. Leave at the origin of the model to make the
                 origins of geometry and model coincident. -->
			<origin xyz="0 0 0"/>
			<geometry>
				<box size="0.005 0.3 0.005" />
			</geometry>
		</visual>

		<!-- Visual only, no collision geometry -->

	</link>

	<!-- gazebo reference="x_axis"> <material>Gazebo/Red</material> </gazebo -->
	<gazebo reference="y_axis">  <material>Gazebo/White</material>  </gazebo>
	<!-- gazebo reference="z_axis">  <material>Gazebo/Blue</material>   </gazebo -->

	<gazebo> <!-- Gazebo params that affect the entire model do not get a "reference" field -->
		<static>true</static>
		<!-- static>false</static --> <!-- If static is not set to true, the axes fall under the influence of gravity -->
    	<turnGravityOff>true</turnGravityOff>
	</gazebo>

</robot>
