<?xml version="1.0"?>

<!-- URL, Spawning simple geometry in Gazebo: http://wiki.ros.org/simulator_gazebo/Tutorials/SpawningObjectInSimulation -->

<robot name="grasp_axes"> <!-- Every URDF model is a "robot" -->

    <!-- == Colors ==  -->
    
    <material name="red">
        <color rgba="1.0 0 0 1"/>
    </material>
    
    <material name="green">
        <color rgba="0 1.0 0 1"/>
    </material>

    <material name="blue">
        <color rgba="0 0 1.0 1"/>
    </material>
    
    <material name="white">
        <color rgba="1 1 1 1"/>
    </material>

    <!-- __ End Color __  -->
    
    <link name="grasp_target">

		<visual>
			<origin xyz="0.0 0 0"/>
			<geometry>
				<box size="0.02 0.02 0.02" />
			</geometry>
			<material name="white"/>
		</visual>

	</link>
	
	<joint name="O-X" type="fixed">
		<parent link="grasp_target"/>
		<child  link="x_block"/>
	</joint>
    
	<link name="x_block">

		<visual>
			<origin xyz="0.05 0 0"/>
			<geometry>
				<box size="0.1 0.01 0.01" />
			</geometry>
			<material name="red"/>
		</visual>

	</link>

	<joint name="X-Y" type="fixed">
		<parent link="x_block"/>
		<child  link="y_block"/>
	</joint>

	<link name="y_block">

		<visual>
			<origin xyz="0 0.05 0"/>
			<geometry>
				<box size="0.01 0.1 0.01" />
			</geometry>
			<material name="green"/>
		</visual>

	</link>

	<joint name="X-Z" type="fixed">
		<parent link="x_block"/>
		<child  link="z_block"/>
	</joint>

	<link name="z_block">

		<visual>
			<!--origin xyz="2 0 1"/-->  <!-- Is this absolute or relative? -->
			<origin xyz="0 0 0.05"/>
			<geometry>
				<box size="0.01 0.01 0.1" />
			</geometry>
			<material name="blue"/>
		</visual>

	</link>

</robot>
